{
    "key": "group_5d1cb06bd4f3a",
    "title": "Careers Information",
    "fields": [
        {
            "key": "field_5d1cb07696e64",
            "label": "Current Openings",
            "name": "current_openings",
            "type": "repeater",
            "instructions": "",
            "required": 0,
            "conditional_logic": 0,
            "wrapper": {
                "width": "",
                "class": "",
                "id": ""
            },
            "collapsed": "",
            "min": 0,
            "max": 0,
            "layout": "row",
            "button_label": "Add Opening",
            "sub_fields": [
                {
                    "key": "field_5d1cb08696e65",
                    "label": "Application Deadline",
                    "name": "application_deadline",
                    "type": "text",
                    "instructions": "Format: Jan 1, 1994",
                    "required": 1,
                    "conditional_logic": 0,
                    "wrapper": {
                        "width": "",
                        "class": "",
                        "id": ""
                    },
                    "default_value": "",
                    "placeholder": "",
                    "prepend": "",
                    "append": "",
                    "maxlength": ""
                },
                {
                    "key": "field_5d1cb0b596e66",
                    "label": "Position Name",
                    "name": "position_name",
                    "type": "text",
                    "instructions": "",
                    "required": 1,
                    "conditional_logic": 0,
                    "wrapper": {
                        "width": "",
                        "class": "",
                        "id": ""
                    },
                    "default_value": "",
                    "placeholder": "",
                    "prepend": "",
                    "append": "",
                    "maxlength": ""
                },
                {
                    "key": "field_5d1cb0c196e67",
                    "label": "Application Link",
                    "name": "application_link",
                    "type": "link",
                    "instructions": "The next step in the application. Should be a child page of <code>\/careers<\/code>. Button text in the popup is ignored.",
                    "required": 1,
                    "conditional_logic": 0,
                    "wrapper": {
                        "width": "",
                        "class": "",
                        "id": ""
                    },
                    "return_format": "array"
                }
            ]
        }
    ],
    "location": [
        [
            {
                "param": "page_template",
                "operator": "==",
                "value": "template-careers.php"
            }
        ]
    ],
    "menu_order": 0,
    "position": "normal",
    "style": "default",
    "label_placement": "top",
    "instruction_placement": "label",
    "hide_on_screen": "",
    "active": 1,
    "description": "",
    "modified": 1562161725
}